Week 2
…
Prompt: Use readxl to read in the data and store it in an object called raw. Clean the data by cleaning any column names, skipping or cutting rows, and storing the cleaned data in an object called en_fall_2020. Additionally, since we will be looking only at undergraduate enrollment, get rid of any irrelevant columns, and filter to keep only courses with at least ten undergraduate students. This will get rid of any weird research courses. Look closely at your data! There is a lot of garbage to find and deal with.

Once you have finished cleaning your data, figure out the course with the highest enrollment. And figure out how many students are enrolled in Gov 50. If you get a number much lower than 151, you have done something wrong . . .

raw <- read_excel("raw_data/class_enrollment_summary_by_term_9-17-2020.xlsx", skip = 3)

en_fall_2020 <- raw %>% 
  clean_names() %>% 
  select(u_grad, course_name, total, course_title, course_department) %>% 
  filter(u_grad > 10) %>% 
  arrange(desc(u_grad)) 
en_fall_2020

## # A tibble: 488 x 5
##    u_grad course_name               total course_title course_department        
##     <dbl> <chr>                     <dbl> <chr>        <chr>                    
##  1  21541 <NA>                      33205 <NA>         <NA>                     
##  2    559 Principles of Economics     567 ECON 10A     Economics                
##  3    504 Intro to Computer Science   547 COMPSCI 50   Computer Science         
##  4    433 Introduction to Probabil   480 STAT 110     Statistics               
##  5    270 Intro. to Psychol. Scien   282 PSY 1        Psychology               
##  6    262 Intermediate Microeconom   269 ECON 1010A   Economics                
##  7    253 Stories from End of World   253 GENED 1001   General Education        
##  8    253 Calculus, Series, and       254 MATH 1B      Mathematics              
##  9    230 Justice: Ethics in Pande   249 GENED 1171   General Education        
## 10    225 Intro to Life Sciences I    225 LIFESCI 1A   Molecular & Cellular Bio
## #  with 478 more rows
…
